%YAML 1.1
%TAG !u! tag:unity3d.com,2011:
--- !u!74 &7400000
AnimationClip:
  m_ObjectHideFlags: 0
  m_CorrespondingSourceObject: {fileID: 0}
  m_PrefabInstance: {fileID: 0}
  m_PrefabAsset: {fileID: 0}
  m_Name: DogHappyFace
  serializedVersion: 6
  m_Legacy: 0
  m_Compressed: 0
  m_UseHighQualityCurve: 1
  m_RotationCurves: []
  m_CompressedRotationCurves: []
  m_EulerCurves: []
  m_PositionCurves: []
  m_ScaleCurves: []
  m_FloatCurves: []
  m_PPtrCurves:
  - curve:
    - time: 0
      value: {fileID: 21300000, guid: 7d9975d529a54d94a813cc2ada308d13, type: 3}
    - time: 0.016666668
      value: {fileID: 21300000, guid: 8574854852e30ee47b73ab37f30eb0b6, type: 3}
    - time: 0.033333335
      value: {fileID: 21300000, guid: d3365f1ffe4275b409cd817ce2c283c3, type: 3}
    - time: 0.05
      value: {fileID: 21300000, guid: 91bca736cc231ef458c64f153453a95c, type: 3}
    - time: 0.06666667
      value: {fileID: 21300000, guid: be00e8e50c23e804686caf770b04c45d, type: 3}
    - time: 0.083333336
      value: {fileID: 21300000, guid: 95676b4ff34e51148a0fcebc1b476c3f, type: 3}
    - time: 0.1
      value: {fileID: 21300000, guid: f876cfbad6b73544e914b1e1c4cfa564, type: 3}
    - time: 0.11666667
      value: {fileID: 21300000, guid: 520c6ea31028d584886d407cbe92bc2c, type: 3}
    - time: 0.13333334
      value: {fileID: 21300000, guid: 100455272d099b140950aca847f255f0, type: 3}
    - time: 0.15
      value: {fileID: 21300000, guid: cd40b653b39185241815907ed5eecb83, type: 3}
    - time: 0.16666667
      value: {fileID: 21300000, guid: c6714cb287c9c3840a35f9ab1de960d5, type: 3}
    - time: 0.18333334
      value: {fileID: 21300000, guid: 5091578545c47ba4aaccda0e227a05cd, type: 3}
    - time: 0.2
      value: {fileID: 21300000, guid: 205e6868a2dbdb049b2ce09c875e119d, type: 3}
    - time: 0.21666667
      value: {fileID: 21300000, guid: de7b8b37b572f5d409b18a3419d96783, type: 3}
    - time: 0.23333333
      value: {fileID: 21300000, guid: a5dd5ed880c42a34c9c44c0781dabc71, type: 3}
    - time: 0.25
      value: {fileID: 21300000, guid: ab82b818943e0844ca8e57ecea58b882, type: 3}
    - time: 0.26666668
      value: {fileID: 21300000, guid: b82ffd56f7cb423478da2fc5599e1b20, type: 3}
    - time: 0.28333333
      value: {fileID: 21300000, guid: 3fcdc6963ac89a647a74d33ab0a6d405, type: 3}
    - time: 0.3
      value: {fileID: 21300000, guid: fb8e441791c0cb5448153addb75ca74e, type: 3}
    - time: 0.31666666
      value: {fileID: 21300000, guid: 376121a01f01f4845bce9a4b07685fb2, type: 3}
    - time: 0.33333334
      value: {fileID: 21300000, guid: 7b12408db7bb8d347b1910c5f32a1df9, type: 3}
    - time: 0.35
      value: {fileID: 21300000, guid: 9af42885fd50d3f419c62fd315fd0a70, type: 3}
    - time: 0.36666667
      value: {fileID: 21300000, guid: 80d4319aef9dd0b449569c5a200ead84, type: 3}
    - time: 0.38333333
      value: {fileID: 21300000, guid: fd921e3adb6b59248b7acd7fbdea7975, type: 3}
    - time: 0.4
      value: {fileID: 21300000, guid: f9fcde893ab1040489c2bc59a2e21158, type: 3}
    - time: 0.41666666
      value: {fileID: 21300000, guid: b23a2a8f96a066f4fa189c8c30d600d7, type: 3}
    - time: 0.43333334
      value: {fileID: 21300000, guid: 4f2783eac6e55ae4ab5873889bb3a453, type: 3}
    - time: 0.45
      value: {fileID: 21300000, guid: cb685243fb2d0eb4ea0fa9606fa339ad, type: 3}
    - time: 0.46666667
      value: {fileID: 21300000, guid: 1022691342c50fc4081c83cc972d0899, type: 3}
    - time: 0.48333332
      value: {fileID: 21300000, guid: 9ab1619929bcfa841b0d3d05fc55c2fc, type: 3}
    - time: 0.5
      value: {fileID: 21300000, guid: d4313f5405526594fbbdc2120ceb00dc, type: 3}
    - time: 0.51666665
      value: {fileID: 21300000, guid: 3ae2f3599ec96cb4891efc5c04b8e943, type: 3}
    - time: 0.53333336
      value: {fileID: 21300000, guid: 1d19c1f4ca87cc04782f643ddf971119, type: 3}
    - time: 0.55
      value: {fileID: 21300000, guid: dcb7911a16bffaa4898671b1f1376472, type: 3}
    - time: 0.56666666
      value: {fileID: 21300000, guid: ed23723ef34d0cf408c03ab8721c7e66, type: 3}
    - time: 0.5833333
      value: {fileID: 21300000, guid: e572afb1269b5e841ae5882d3979f4ee, type: 3}
    - time: 0.6
      value: {fileID: 21300000, guid: 6c1ef03f6ccfe86459ebe98fdb7eba37, type: 3}
    - time: 0.6166667
      value: {fileID: 21300000, guid: 8b385628c84e65f458900f2afa62d2fa, type: 3}
    - time: 0.6333333
      value: {fileID: 21300000, guid: 108d47f22ea5a0b449552ea5fb2b7d19, type: 3}
    - time: 0.65
      value: {fileID: 21300000, guid: 3480af46f1849264d9fee55bc92d51b2, type: 3}
    - time: 0.6666667
      value: {fileID: 21300000, guid: 1934622f29c38694fa5cd935de6cbc69, type: 3}
    - time: 0.68333334
      value: {fileID: 21300000, guid: 576db3c53a8bff94aa940364fa8f48d4, type: 3}
    - time: 0.7
      value: {fileID: 21300000, guid: bf399a0194617e14f9a170ecbc03afaf, type: 3}
    - time: 0.71666664
      value: {fileID: 21300000, guid: 66351e7632cb5634aa73f339a1cebf14, type: 3}
    - time: 0.73333335
      value: {fileID: 21300000, guid: 68e98eb056cabd842b8582452f82a649, type: 3}
    - time: 0.75
      value: {fileID: 21300000, guid: 1d6da7abba4aabf4a8a14673b391fb1b, type: 3}
    - time: 0.76666665
      value: {fileID: 21300000, guid: 1c62b47863e06c543a39912cd18deeff, type: 3}
    - time: 0.78333336
      value: {fileID: 21300000, guid: 2a54265514272ba4780326a33be937e3, type: 3}
    - time: 0.8
      value: {fileID: 21300000, guid: f85dd0aefcafbbc419416b6a13888cd4, type: 3}
    - time: 0.81666666
      value: {fileID: 21300000, guid: f1c39ad9a48807b4bb315daa239ed16a, type: 3}
    - time: 0.8333333
      value: {fileID: 21300000, guid: 2a2c6c3665e5db1428659a324cf5f5b3, type: 3}
    - time: 0.85
      value: {fileID: 21300000, guid: 4299c48abfad0f840a7c75d6c5996f79, type: 3}
    - time: 0.8666667
      value: {fileID: 21300000, guid: df5df48d14732bc41b66fa618cd35237, type: 3}
    - time: 0.8833333
      value: {fileID: 21300000, guid: e7584d197fec483459c503eb9211155e, type: 3}
    - time: 0.9
      value: {fileID: 21300000, guid: 19c9d39adc2230d4081b600dbe6a80b5, type: 3}
    - time: 0.9166667
      value: {fileID: 21300000, guid: cd742cbf024c9af42b514dd2c0f63c37, type: 3}
    - time: 0.93333334
      value: {fileID: 21300000, guid: ace22d38444498540928f944403119a2, type: 3}
    - time: 0.95
      value: {fileID: 21300000, guid: 736a1219f3e47374b81f3c68e0f01c71, type: 3}
    - time: 0.96666664
      value: {fileID: 21300000, guid: aaf83511c44f8c240b04d2093237b4e4, type: 3}
    - time: 0.98333335
      value: {fileID: 21300000, guid: ff9f17fc5f4c32042a0e420836fbecac, type: 3}
    - time: 1
      value: {fileID: 21300000, guid: 2aae579bb6fd75b4e8ceb0d830916ff3, type: 3}
    - time: 1.0166667
      value: {fileID: 21300000, guid: fb77b62d0351516499812c7210e3bfc9, type: 3}
    - time: 1.0333333
      value: {fileID: 21300000, guid: 4f8c2b710fc15b64aa8d6ccfbdf3eb3a, type: 3}
    - time: 1.05
      value: {fileID: 21300000, guid: fa1a75d22fb1609489419853d4f0610e, type: 3}
    - time: 1.0666667
      value: {fileID: 21300000, guid: 6987a4fe668e0794fbeb3ec5903aef0e, type: 3}
    - time: 1.0833334
      value: {fileID: 21300000, guid: 74788ccd080bce744853869b04b383c6, type: 3}
    - time: 1.1
      value: {fileID: 21300000, guid: 3e422eda74d23464689f86c804785cf4, type: 3}
    - time: 1.1166667
      value: {fileID: 21300000, guid: 99036760f859cfb47b8b6d55e4e32129, type: 3}
    - time: 1.1333333
      value: {fileID: 21300000, guid: 5c455d9bfd8bc8e4594dba12ba0fa956, type: 3}
    - time: 1.15
      value: {fileID: 21300000, guid: 990a5dbf2d5d4e2498778291d6341ef8, type: 3}
    - time: 1.1666666
      value: {fileID: 21300000, guid: f3c54d35582846545a3f85ae8faee258, type: 3}
    - time: 1.1833333
      value: {fileID: 21300000, guid: 1785c9f729d8a5c47953432cb00adc7c, type: 3}
    - time: 1.2
      value: {fileID: 21300000, guid: 5dc82917b0cfa7e499f5d2662d50a8d4, type: 3}
    - time: 1.2166667
      value: {fileID: 21300000, guid: 8f55c686c109509468ece686d1594dac, type: 3}
    - time: 1.2333333
      value: {fileID: 21300000, guid: 0d64ee33a392df74fb196d9b16507f58, type: 3}
    attribute: m_Sprite
    path: 
    classID: 114
    script: {fileID: 11500000, guid: fe87c0e1cc204ed48ad3b37840f39efc, type: 3}
  m_SampleRate: 60
  m_WrapMode: 0
  m_Bounds:
    m_Center: {x: 0, y: 0, z: 0}
    m_Extent: {x: 0, y: 0, z: 0}
  m_ClipBindingConstant:
    genericBindings:
    - serializedVersion: 2
      path: 0
      attribute: 2015549526
      script: {fileID: 11500000, guid: fe87c0e1cc204ed48ad3b37840f39efc, type: 3}
      typeID: 114
      customType: 0
      isPPtrCurve: 1
    pptrCurveMapping:
    - {fileID: 21300000, guid: 7d9975d529a54d94a813cc2ada308d13, type: 3}
    - {fileID: 21300000, guid: 8574854852e30ee47b73ab37f30eb0b6, type: 3}
    - {fileID: 21300000, guid: d3365f1ffe4275b409cd817ce2c283c3, type: 3}
    - {fileID: 21300000, guid: 91bca736cc231ef458c64f153453a95c, type: 3}
    - {fileID: 21300000, guid: be00e8e50c23e804686caf770b04c45d, type: 3}
    - {fileID: 21300000, guid: 95676b4ff34e51148a0fcebc1b476c3f, type: 3}
    - {fileID: 21300000, guid: f876cfbad6b73544e914b1e1c4cfa564, type: 3}
    - {fileID: 21300000, guid: 520c6ea31028d584886d407cbe92bc2c, type: 3}
    - {fileID: 21300000, guid: 100455272d099b140950aca847f255f0, type: 3}
    - {fileID: 21300000, guid: cd40b653b39185241815907ed5eecb83, type: 3}
    - {fileID: 21300000, guid: c6714cb287c9c3840a35f9ab1de960d5, type: 3}
    - {fileID: 21300000, guid: 5091578545c47ba4aaccda0e227a05cd, type: 3}
    - {fileID: 21300000, guid: 205e6868a2dbdb049b2ce09c875e119d, type: 3}
    - {fileID: 21300000, guid: de7b8b37b572f5d409b18a3419d96783, type: 3}
    - {fileID: 21300000, guid: a5dd5ed880c42a34c9c44c0781dabc71, type: 3}
    - {fileID: 21300000, guid: ab82b818943e0844ca8e57ecea58b882, type: 3}
    - {fileID: 21300000, guid: b82ffd56f7cb423478da2fc5599e1b20, type: 3}
    - {fileID: 21300000, guid: 3fcdc6963ac89a647a74d33ab0a6d405, type: 3}
    - {fileID: 21300000, guid: fb8e441791c0cb5448153addb75ca74e, type: 3}
    - {fileID: 21300000, guid: 376121a01f01f4845bce9a4b07685fb2, type: 3}
    - {fileID: 21300000, guid: 7b12408db7bb8d347b1910c5f32a1df9, type: 3}
    - {fileID: 21300000, guid: 9af42885fd50d3f419c62fd315fd0a70, type: 3}
    - {fileID: 21300000, guid: 80d4319aef9dd0b449569c5a200ead84, type: 3}
    - {fileID: 21300000, guid: fd921e3adb6b59248b7acd7fbdea7975, type: 3}
    - {fileID: 21300000, guid: f9fcde893ab1040489c2bc59a2e21158, type: 3}
    - {fileID: 21300000, guid: b23a2a8f96a066f4fa189c8c30d600d7, type: 3}
    - {fileID: 21300000, guid: 4f2783eac6e55ae4ab5873889bb3a453, type: 3}
    - {fileID: 21300000, guid: cb685243fb2d0eb4ea0fa9606fa339ad, type: 3}
    - {fileID: 21300000, guid: 1022691342c50fc4081c83cc972d0899, type: 3}
    - {fileID: 21300000, guid: 9ab1619929bcfa841b0d3d05fc55c2fc, type: 3}
    - {fileID: 21300000, guid: d4313f5405526594fbbdc2120ceb00dc, type: 3}
    - {fileID: 21300000, guid: 3ae2f3599ec96cb4891efc5c04b8e943, type: 3}
    - {fileID: 21300000, guid: 1d19c1f4ca87cc04782f643ddf971119, type: 3}
    - {fileID: 21300000, guid: dcb7911a16bffaa4898671b1f1376472, type: 3}
    - {fileID: 21300000, guid: ed23723ef34d0cf408c03ab8721c7e66, type: 3}
    - {fileID: 21300000, guid: e572afb1269b5e841ae5882d3979f4ee, type: 3}
    - {fileID: 21300000, guid: 6c1ef03f6ccfe86459ebe98fdb7eba37, type: 3}
    - {fileID: 21300000, guid: 8b385628c84e65f458900f2afa62d2fa, type: 3}
    - {fileID: 21300000, guid: 108d47f22ea5a0b449552ea5fb2b7d19, type: 3}
    - {fileID: 21300000, guid: 3480af46f1849264d9fee55bc92d51b2, type: 3}
    - {fileID: 21300000, guid: 1934622f29c38694fa5cd935de6cbc69, type: 3}
    - {fileID: 21300000, guid: 576db3c53a8bff94aa940364fa8f48d4, type: 3}
    - {fileID: 21300000, guid: bf399a0194617e14f9a170ecbc03afaf, type: 3}
    - {fileID: 21300000, guid: 66351e7632cb5634aa73f339a1cebf14, type: 3}
    - {fileID: 21300000, guid: 68e98eb056cabd842b8582452f82a649, type: 3}
    - {fileID: 21300000, guid: 1d6da7abba4aabf4a8a14673b391fb1b, type: 3}
    - {fileID: 21300000, guid: 1c62b47863e06c543a39912cd18deeff, type: 3}
    - {fileID: 21300000, guid: 2a54265514272ba4780326a33be937e3, type: 3}
    - {fileID: 21300000, guid: f85dd0aefcafbbc419416b6a13888cd4, type: 3}
    - {fileID: 21300000, guid: f1c39ad9a48807b4bb315daa239ed16a, type: 3}
    - {fileID: 21300000, guid: 2a2c6c3665e5db1428659a324cf5f5b3, type: 3}
    - {fileID: 21300000, guid: 4299c48abfad0f840a7c75d6c5996f79, type: 3}
    - {fileID: 21300000, guid: df5df48d14732bc41b66fa618cd35237, type: 3}
    - {fileID: 21300000, guid: e7584d197fec483459c503eb9211155e, type: 3}
    - {fileID: 21300000, guid: 19c9d39adc2230d4081b600dbe6a80b5, type: 3}
    - {fileID: 21300000, guid: cd742cbf024c9af42b514dd2c0f63c37, type: 3}
    - {fileID: 21300000, guid: ace22d38444498540928f944403119a2, type: 3}
    - {fileID: 21300000, guid: 736a1219f3e47374b81f3c68e0f01c71, type: 3}
    - {fileID: 21300000, guid: aaf83511c44f8c240b04d2093237b4e4, type: 3}
    - {fileID: 21300000, guid: ff9f17fc5f4c32042a0e420836fbecac, type: 3}
    - {fileID: 21300000, guid: 2aae579bb6fd75b4e8ceb0d830916ff3, type: 3}
    - {fileID: 21300000, guid: fb77b62d0351516499812c7210e3bfc9, type: 3}
    - {fileID: 21300000, guid: 4f8c2b710fc15b64aa8d6ccfbdf3eb3a, type: 3}
    - {fileID: 21300000, guid: fa1a75d22fb1609489419853d4f0610e, type: 3}
    - {fileID: 21300000, guid: 6987a4fe668e0794fbeb3ec5903aef0e, type: 3}
    - {fileID: 21300000, guid: 74788ccd080bce744853869b04b383c6, type: 3}
    - {fileID: 21300000, guid: 3e422eda74d23464689f86c804785cf4, type: 3}
    - {fileID: 21300000, guid: 99036760f859cfb47b8b6d55e4e32129, type: 3}
    - {fileID: 21300000, guid: 5c455d9bfd8bc8e4594dba12ba0fa956, type: 3}
    - {fileID: 21300000, guid: 990a5dbf2d5d4e2498778291d6341ef8, type: 3}
    - {fileID: 21300000, guid: f3c54d35582846545a3f85ae8faee258, type: 3}
    - {fileID: 21300000, guid: 1785c9f729d8a5c47953432cb00adc7c, type: 3}
    - {fileID: 21300000, guid: 5dc82917b0cfa7e499f5d2662d50a8d4, type: 3}
    - {fileID: 21300000, guid: 8f55c686c109509468ece686d1594dac, type: 3}
    - {fileID: 21300000, guid: 0d64ee33a392df74fb196d9b16507f58, type: 3}
  m_AnimationClipSettings:
    serializedVersion: 2
    m_AdditiveReferencePoseClip: {fileID: 0}
    m_AdditiveReferencePoseTime: 0
    m_StartTime: 0
    m_StopTime: 1.25
    m_OrientationOffsetY: 0
    m_Level: 0
    m_CycleOffset: 0
    m_HasAdditiveReferencePose: 0
    m_LoopTime: 1
    m_LoopBlend: 0
    m_LoopBlendOrientation: 0
    m_LoopBlendPositionY: 0
    m_LoopBlendPositionXZ: 0
    m_KeepOriginalOrientation: 0
    m_KeepOriginalPositionY: 1
    m_KeepOriginalPositionXZ: 0
    m_HeightFromFeet: 0
    m_Mirror: 0
  m_EditorCurves: []
  m_EulerEditorCurves: []
  m_HasGenericRootTransform: 0
  m_HasMotionFloatCurves: 0
  m_Events: []
