%YAML 1.1
%TAG !u! tag:unity3d.com,2011:
--- !u!74 &7400000
AnimationClip:
  m_ObjectHideFlags: 0
  m_CorrespondingSourceObject: {fileID: 0}
  m_PrefabInstance: {fileID: 0}
  m_PrefabAsset: {fileID: 0}
  m_Name: Camel
  serializedVersion: 6
  m_Legacy: 0
  m_Compressed: 0
  m_UseHighQualityCurve: 1
  m_RotationCurves: []
  m_CompressedRotationCurves: []
  m_EulerCurves: []
  m_PositionCurves: []
  m_ScaleCurves: []
  m_FloatCurves: []
  m_PPtrCurves:
  - curve:
    - time: 0
      value: {fileID: 21300000, guid: 5fb443b3510dd9545a92662ffe19dcee, type: 3}
    - time: 0.016666668
      value: {fileID: 21300000, guid: 63191f7015091d74f91f670c3538fe8f, type: 3}
    - time: 0.033333335
      value: {fileID: 21300000, guid: b2598b1a76ea7fa4ebe8bad9070cc24c, type: 3}
    - time: 0.05
      value: {fileID: 21300000, guid: 9ff2204e2a00dd74ea5142a3b1d5a240, type: 3}
    - time: 0.06666667
      value: {fileID: 21300000, guid: 8d84e30076f24cb4abdab1be696db86f, type: 3}
    - time: 0.083333336
      value: {fileID: 21300000, guid: 160618f4340a4ab4ca2fadb8cc01caed, type: 3}
    - time: 0.1
      value: {fileID: 21300000, guid: 5b601701ff4c66a41ac5b42834e6c4f5, type: 3}
    - time: 0.11666667
      value: {fileID: 21300000, guid: ba85dda2cd980b24aaab5fadc2e9b7b6, type: 3}
    - time: 0.13333334
      value: {fileID: 21300000, guid: f5f7fd281da26e549ad4545131a6f445, type: 3}
    - time: 0.15
      value: {fileID: 21300000, guid: f3c461732cd9bac4fa107a7020371914, type: 3}
    - time: 0.16666667
      value: {fileID: 21300000, guid: 9ec282f34726c8c44bcc4373c19dd316, type: 3}
    - time: 0.18333334
      value: {fileID: 21300000, guid: 3dc7fb97d2f0be04da0b9b84a8623270, type: 3}
    - time: 0.2
      value: {fileID: 21300000, guid: 2187d2ab7c981f64898975d4f37d143e, type: 3}
    - time: 0.21666667
      value: {fileID: 21300000, guid: 0480c617ad3ab424ea7e376ef747a53a, type: 3}
    - time: 0.23333333
      value: {fileID: 21300000, guid: eff30aa6b55409f43bf5058a642c160d, type: 3}
    - time: 0.25
      value: {fileID: 21300000, guid: ec66af5653b471a4ab52039786f62ece, type: 3}
    - time: 0.26666668
      value: {fileID: 21300000, guid: 32277da363480e944899c7816aefd400, type: 3}
    - time: 0.28333333
      value: {fileID: 21300000, guid: bd8ab34c456e31d44ad2797830169180, type: 3}
    - time: 0.3
      value: {fileID: 21300000, guid: ae26c16c9a1d54d4ca1e13a5628ea795, type: 3}
    - time: 0.31666666
      value: {fileID: 21300000, guid: 99b32656d810a524586cf0e90b923276, type: 3}
    - time: 0.33333334
      value: {fileID: 21300000, guid: eaae271389a3e5543be8d8a419462099, type: 3}
    - time: 0.35
      value: {fileID: 21300000, guid: 50c959c833e049741823f9f7bac22474, type: 3}
    - time: 0.36666667
      value: {fileID: 21300000, guid: 540a99ec054f2a0499130cd405c7601b, type: 3}
    - time: 0.38333333
      value: {fileID: 21300000, guid: f8a61469a68c5b54d86e47e8d46289c3, type: 3}
    - time: 0.4
      value: {fileID: 21300000, guid: f19668117285a5640b88c26d12803724, type: 3}
    - time: 0.41666666
      value: {fileID: 21300000, guid: 6f41892616302ee4ea1daf491b2e0075, type: 3}
    - time: 0.43333334
      value: {fileID: 21300000, guid: 16cd511eb07300f43adba19795c7814a, type: 3}
    - time: 0.45
      value: {fileID: 21300000, guid: 799bc8d5b13d636499e2f9f26e9610fa, type: 3}
    - time: 0.46666667
      value: {fileID: 21300000, guid: baf45a1e098108d4eb503e24c42fb5d7, type: 3}
    - time: 0.48333332
      value: {fileID: 21300000, guid: 5038750e046899844b155e1b27073c54, type: 3}
    - time: 0.5
      value: {fileID: 21300000, guid: 3a06e0342179ab241bcc63f1c0ee64e0, type: 3}
    - time: 0.51666665
      value: {fileID: 21300000, guid: dce639b23a923a14e986102e16791730, type: 3}
    - time: 0.53333336
      value: {fileID: 21300000, guid: 360c73010659c434d99ce09b1cc44943, type: 3}
    - time: 0.55
      value: {fileID: 21300000, guid: 508e775a7714e9d41802b3fbbaa78dbb, type: 3}
    - time: 0.56666666
      value: {fileID: 21300000, guid: b7e1619e6ae3dea48b455e72e69145a8, type: 3}
    - time: 0.5833333
      value: {fileID: 21300000, guid: e2a49ea8904a20f4d8d5345d5c2bfdb1, type: 3}
    - time: 0.6
      value: {fileID: 21300000, guid: e120e5aeff88700419e53575067f818e, type: 3}
    - time: 0.6166667
      value: {fileID: 21300000, guid: 48a3c1538cdc78e44bca338c58d48e0e, type: 3}
    - time: 0.6333333
      value: {fileID: 21300000, guid: 84796a2c93fc1d7458288723ed5082a2, type: 3}
    - time: 0.65
      value: {fileID: 21300000, guid: e9721131da818f646bce8ffe70e0a738, type: 3}
    - time: 0.6666667
      value: {fileID: 21300000, guid: fb5e64adcc492944bb1129d68cd9c39a, type: 3}
    - time: 0.68333334
      value: {fileID: 21300000, guid: 9a338e4c745f75a43a728a2bc55fdcf8, type: 3}
    - time: 0.7
      value: {fileID: 21300000, guid: de7e96a572227184d80dd1a7b38aebb0, type: 3}
    - time: 0.71666664
      value: {fileID: 21300000, guid: c6ce4c590604c1746851ac9be4c36cb5, type: 3}
    - time: 0.73333335
      value: {fileID: 21300000, guid: 00066b23ac380694ba416730aaf78c18, type: 3}
    - time: 0.75
      value: {fileID: 21300000, guid: cb533132099aadc428320cc577709a36, type: 3}
    - time: 0.76666665
      value: {fileID: 21300000, guid: fd35f9d67fe29694d9a3d412c295ba84, type: 3}
    - time: 0.78333336
      value: {fileID: 21300000, guid: a0d119e205f163f4cac8fbe7f415885b, type: 3}
    - time: 0.8
      value: {fileID: 21300000, guid: c620a087ae50eea409dc06beed6f46f2, type: 3}
    - time: 0.81666666
      value: {fileID: 21300000, guid: ad06531214260e24ea3cb67db4b0c3fb, type: 3}
    - time: 0.8333333
      value: {fileID: 21300000, guid: d340359026866ad44b1d66826cc0da2b, type: 3}
    - time: 0.85
      value: {fileID: 21300000, guid: 8e41cab105227474eac03a55b58d8986, type: 3}
    - time: 0.8666667
      value: {fileID: 21300000, guid: ae7ce4e2358f13a45ae0e308e0c6202e, type: 3}
    - time: 0.8833333
      value: {fileID: 21300000, guid: a5da33a767db6624cbb3f5162bb3e7f7, type: 3}
    - time: 0.9
      value: {fileID: 21300000, guid: 096249f71291ae34d8f63cd232784953, type: 3}
    - time: 0.9166667
      value: {fileID: 21300000, guid: 60e8b0905009873409505cdc3670c2db, type: 3}
    - time: 0.93333334
      value: {fileID: 21300000, guid: 3981332b465d93e4d90a6a18a9d09821, type: 3}
    - time: 0.95
      value: {fileID: 21300000, guid: eda30e22e8b2d684787f5f839f3a3293, type: 3}
    - time: 0.96666664
      value: {fileID: 21300000, guid: cda1d8ebd2a94a840aebcb06fe9b500a, type: 3}
    - time: 0.98333335
      value: {fileID: 21300000, guid: aa7e625b232ebef4ea388d6c724c3486, type: 3}
    - time: 1
      value: {fileID: 21300000, guid: aab91dc5b1c6b9146ad7db7cdab197a1, type: 3}
    - time: 1.0166667
      value: {fileID: 21300000, guid: e19b8e414dca0b84e9359032ce04cc03, type: 3}
    - time: 1.0333333
      value: {fileID: 21300000, guid: 9e6dda4430dba4c42881bb0e4f6119a5, type: 3}
    - time: 1.05
      value: {fileID: 21300000, guid: 578a92ee27c41c14c8a566b1246f5f7a, type: 3}
    - time: 1.0666667
      value: {fileID: 21300000, guid: f8f74a2a83fb9a04a8718fac9a2191a6, type: 3}
    - time: 1.0833334
      value: {fileID: 21300000, guid: d3f25de6c0015f34cb0c296ed1e411bd, type: 3}
    - time: 1.1
      value: {fileID: 21300000, guid: 10e34177a2b09f945a46a480218e7bf4, type: 3}
    - time: 1.1166667
      value: {fileID: 21300000, guid: 24e2f9e810d86f742bc86a6cb262ab67, type: 3}
    - time: 1.1333333
      value: {fileID: 21300000, guid: 54bb04ae5713cab4f8cff8e1b4eb0806, type: 3}
    - time: 1.15
      value: {fileID: 21300000, guid: a8fd4635c79f3ea4b856edfae2957a3f, type: 3}
    - time: 1.1666666
      value: {fileID: 21300000, guid: 6c269e42a07013f4a8e1399836954876, type: 3}
    - time: 1.1833333
      value: {fileID: 21300000, guid: 2ab6231f4038f8c4487802f125811712, type: 3}
    - time: 1.2
      value: {fileID: 21300000, guid: 3505f71294951d4468218a78b11286e8, type: 3}
    - time: 1.2166667
      value: {fileID: 21300000, guid: 04117b2509ae0974f86c38ee3cc9420a, type: 3}
    - time: 1.2333333
      value: {fileID: 21300000, guid: 4da2bc62169929442909e1b8ff49e8de, type: 3}
    - time: 1.25
      value: {fileID: 21300000, guid: 749802eb6d971594ab4bcdbe6532dd2f, type: 3}
    - time: 1.2666667
      value: {fileID: 21300000, guid: b04bf362f183aee4d9b6274e692af439, type: 3}
    - time: 1.2833333
      value: {fileID: 21300000, guid: 8c2d61df71078054fbffd4c4f7e92c29, type: 3}
    - time: 1.3
      value: {fileID: 21300000, guid: ab5a4177e8c8aa24daee3022daab5d3a, type: 3}
    - time: 1.3166667
      value: {fileID: 21300000, guid: a520c3ae715e01d4fb44b0cf7a8e282b, type: 3}
    - time: 1.3333334
      value: {fileID: 21300000, guid: 836243c4e5a8a454a8be92ec3c322e04, type: 3}
    - time: 1.35
      value: {fileID: 21300000, guid: f482127ac00f1fd4da3f3f85a131c8ce, type: 3}
    - time: 1.3666667
      value: {fileID: 21300000, guid: fc9eb22d802be504f8420d15ebfd58c3, type: 3}
    - time: 1.3833333
      value: {fileID: 21300000, guid: 30f1f1db3697634488b1788b65a113cf, type: 3}
    - time: 1.4
      value: {fileID: 21300000, guid: 4dadff67f6e5b474c85186ca5259a421, type: 3}
    - time: 1.4166666
      value: {fileID: 21300000, guid: 1e43bfac84f78e2418ef1a6e17ad1aff, type: 3}
    - time: 1.4333333
      value: {fileID: 21300000, guid: ab894d87273fa0d458ae145e6bda64b0, type: 3}
    - time: 1.45
      value: {fileID: 21300000, guid: 2874aadffbb019545aa1dd838d5a14f1, type: 3}
    - time: 1.4666667
      value: {fileID: 21300000, guid: 3e15fe418c8b5ca4296645c9917d4780, type: 3}
    - time: 1.4833333
      value: {fileID: 21300000, guid: 4f9454af20e02bb4a903b26d18f3fde7, type: 3}
    - time: 1.5
      value: {fileID: 21300000, guid: c9a9463c6fe22484288c4ef5949f6acc, type: 3}
    - time: 1.5166667
      value: {fileID: 21300000, guid: f7ff3ef156fa13142a655beb72aab7b0, type: 3}
    - time: 1.5333333
      value: {fileID: 21300000, guid: b1e47f059b0fb034480bf0997b751a23, type: 3}
    - time: 1.55
      value: {fileID: 21300000, guid: f22fa6f7310204e4a8a05295940c3b3e, type: 3}
    - time: 1.5666667
      value: {fileID: 21300000, guid: 8c44846ccb240fa458772aebb19e67b3, type: 3}
    - time: 1.5833334
      value: {fileID: 21300000, guid: aeac6286c4b20a74b97dbb0f360d15de, type: 3}
    - time: 1.6
      value: {fileID: 21300000, guid: 5d067fbb0ccae8e4eaf27f7440e361ff, type: 3}
    - time: 1.6166667
      value: {fileID: 21300000, guid: 1fa9a56a9a5cc5a49a6d2c23dba1dbf4, type: 3}
    - time: 1.6333333
      value: {fileID: 21300000, guid: 6236e0061449d564b9231f5445eb9e8f, type: 3}
    - time: 1.65
      value: {fileID: 21300000, guid: b7629fe1156cb9940b936158baec9145, type: 3}
    - time: 1.6666666
      value: {fileID: 21300000, guid: 2166ded67b257874e9ada7a940a7f43f, type: 3}
    - time: 1.6833333
      value: {fileID: 21300000, guid: 493960d140b3a7540ab0d9e1ff5453f0, type: 3}
    - time: 1.7
      value: {fileID: 21300000, guid: 97bff9d616e896b428ac77a6b1c1c149, type: 3}
    - time: 1.7166667
      value: {fileID: 21300000, guid: c8a3e57c93b24224a9b9ed3e35f6e4c4, type: 3}
    - time: 1.7333333
      value: {fileID: 21300000, guid: 12ea05322c3f1e945ad85cddb2bf554a, type: 3}
    - time: 1.75
      value: {fileID: 21300000, guid: a97ce4bd2d9d7ba4eb35d91414e8ca85, type: 3}
    - time: 1.7666667
      value: {fileID: 21300000, guid: 4cf68113f726b7c4e8b6c094f5d645b7, type: 3}
    - time: 1.7833333
      value: {fileID: 21300000, guid: 7b984868d832baa4b80c9d9930526b4b, type: 3}
    - time: 1.8
      value: {fileID: 21300000, guid: 0ce8875d56d63234196c1b3db969f15c, type: 3}
    - time: 1.8166667
      value: {fileID: 21300000, guid: e47cd49dbf267d0458e1de8bf31f737c, type: 3}
    - time: 1.8333334
      value: {fileID: 21300000, guid: eba55d22a63d846419de0803ebd1f269, type: 3}
    - time: 1.85
      value: {fileID: 21300000, guid: 536abf9d62672d24095b86e03718a9a4, type: 3}
    - time: 1.8666667
      value: {fileID: 21300000, guid: 910f7711590546a4caf9713b821c21ff, type: 3}
    - time: 1.8833333
      value: {fileID: 21300000, guid: c61f5f983059fd147adc4781fc39ee7c, type: 3}
    - time: 1.9
      value: {fileID: 21300000, guid: 2bbb7b16737500b48bd84198123ac2ab, type: 3}
    - time: 1.9166666
      value: {fileID: 21300000, guid: 39fa2130647d2fb438bbecba58af2c4b, type: 3}
    - time: 1.9333333
      value: {fileID: 21300000, guid: f7fdcc0613ddd984286048d7179c6a5b, type: 3}
    - time: 1.95
      value: {fileID: 21300000, guid: d5b64c02151ed5d4cae47b47f6a4c889, type: 3}
    - time: 1.9666667
      value: {fileID: 21300000, guid: 914dc42b73df978468223b1b668da346, type: 3}
    - time: 1.9833333
      value: {fileID: 21300000, guid: b63ec0cc92bb1384183af55176275e08, type: 3}
    - time: 2
      value: {fileID: 21300000, guid: 1ee9a33ee517e294ca289c562802e2bd, type: 3}
    - time: 2.0166667
      value: {fileID: 21300000, guid: becccbb79e8b9a847954c76aa2f0c662, type: 3}
    - time: 2.0333333
      value: {fileID: 21300000, guid: 0b4d070762bdc6f4395c05fa8a355484, type: 3}
    - time: 2.05
      value: {fileID: 21300000, guid: b1d4f02c41550c64ba7dbbad220073e6, type: 3}
    - time: 2.0666666
      value: {fileID: 21300000, guid: 6f91faee871422d44863c230cadc0ff2, type: 3}
    - time: 2.0833333
      value: {fileID: 21300000, guid: 937f80fffbae0a44da0486fcb6058292, type: 3}
    - time: 2.1
      value: {fileID: 21300000, guid: a6b39b1f3521d12418d693ce90a5a0a1, type: 3}
    - time: 2.1166666
      value: {fileID: 21300000, guid: 67be745422e4eab4eae79322ff1ac13f, type: 3}
    - time: 2.1333334
      value: {fileID: 21300000, guid: b1bbd249683295f4e936dd3c7a5c5e89, type: 3}
    - time: 2.15
      value: {fileID: 21300000, guid: 9cdb38ac5bc02b84b88f4e565c79d422, type: 3}
    - time: 2.1666667
      value: {fileID: 21300000, guid: ea32ffe1fcaf9894e8fcb8e0c9cd5581, type: 3}
    - time: 2.1833334
      value: {fileID: 21300000, guid: 495b69508951fc942927119bd560ccfc, type: 3}
    - time: 2.2
      value: {fileID: 21300000, guid: cb7563d1da3997c4a904c75eae4ac460, type: 3}
    - time: 2.2166667
      value: {fileID: 21300000, guid: 6adeeba946b78144bb700d20ab050d00, type: 3}
    - time: 2.2333333
      value: {fileID: 21300000, guid: c6a2fce1771efcd4ab85361876af32b7, type: 3}
    - time: 2.25
      value: {fileID: 21300000, guid: 162aed1641235144194767f3d38bd5f2, type: 3}
    - time: 2.2666667
      value: {fileID: 21300000, guid: e374dd877c3615b418ab37e3d66bbac5, type: 3}
    - time: 2.2833333
      value: {fileID: 21300000, guid: bf34f4f13e3e7174b8f8370d30463537, type: 3}
    - time: 2.3
      value: {fileID: 21300000, guid: 271989adb5a51944b891b3f74cabe44e, type: 3}
    - time: 2.3166666
      value: {fileID: 21300000, guid: ce2453eb7bf70614caf3a13ea1f9636b, type: 3}
    - time: 2.3333333
      value: {fileID: 21300000, guid: c6e1a8af500069b4fbc0c1b6a4937de6, type: 3}
    - time: 2.35
      value: {fileID: 21300000, guid: 4565ba1babb1bba4182231689e0c6ab4, type: 3}
    - time: 2.3666666
      value: {fileID: 21300000, guid: e359c8d4ea002994a9435bce2aa87dc4, type: 3}
    - time: 2.3833334
      value: {fileID: 21300000, guid: 3124810a89441224689bb758e63a6f27, type: 3}
    - time: 2.4
      value: {fileID: 21300000, guid: a5223702ad600b843b7a271f4ca70f7f, type: 3}
    - time: 2.4166667
      value: {fileID: 21300000, guid: d04c72f0630fa1141949ed2d102486b4, type: 3}
    - time: 2.4333334
      value: {fileID: 21300000, guid: 737e30c53ba08fc4eac04308424784fb, type: 3}
    - time: 2.45
      value: {fileID: 21300000, guid: a95aa0e3bd3e8e54aaf89a301572c708, type: 3}
    - time: 2.4666667
      value: {fileID: 21300000, guid: 1c598bc07e5848347bad0be8f7cd466c, type: 3}
    - time: 2.4833333
      value: {fileID: 21300000, guid: 3c3e542576da3a8409ca5f9fbcb73b75, type: 3}
    - time: 2.5
      value: {fileID: 21300000, guid: 094cf54f6b71d9645a266246b0603025, type: 3}
    - time: 2.5166667
      value: {fileID: 21300000, guid: 2698487f09509f54db29eff40bc8210e, type: 3}
    - time: 2.5333333
      value: {fileID: 21300000, guid: b9d13f46e60d92e4fa5a18567eb8aeb4, type: 3}
    - time: 2.55
      value: {fileID: 21300000, guid: eac2fe8d8230e964f84e8932c337a2b8, type: 3}
    attribute: m_Sprite
    path: 
    classID: 212
    script: {fileID: 0}
  m_SampleRate: 60
  m_WrapMode: 0
  m_Bounds:
    m_Center: {x: 0, y: 0, z: 0}
    m_Extent: {x: 0, y: 0, z: 0}
  m_ClipBindingConstant:
    genericBindings:
    - serializedVersion: 2
      path: 0
      attribute: 0
      script: {fileID: 0}
      typeID: 212
      customType: 23
      isPPtrCurve: 1
    pptrCurveMapping:
    - {fileID: 21300000, guid: 5fb443b3510dd9545a92662ffe19dcee, type: 3}
    - {fileID: 21300000, guid: 63191f7015091d74f91f670c3538fe8f, type: 3}
    - {fileID: 21300000, guid: b2598b1a76ea7fa4ebe8bad9070cc24c, type: 3}
    - {fileID: 21300000, guid: 9ff2204e2a00dd74ea5142a3b1d5a240, type: 3}
    - {fileID: 21300000, guid: 8d84e30076f24cb4abdab1be696db86f, type: 3}
    - {fileID: 21300000, guid: 160618f4340a4ab4ca2fadb8cc01caed, type: 3}
    - {fileID: 21300000, guid: 5b601701ff4c66a41ac5b42834e6c4f5, type: 3}
    - {fileID: 21300000, guid: ba85dda2cd980b24aaab5fadc2e9b7b6, type: 3}
    - {fileID: 21300000, guid: f5f7fd281da26e549ad4545131a6f445, type: 3}
    - {fileID: 21300000, guid: f3c461732cd9bac4fa107a7020371914, type: 3}
    - {fileID: 21300000, guid: 9ec282f34726c8c44bcc4373c19dd316, type: 3}
    - {fileID: 21300000, guid: 3dc7fb97d2f0be04da0b9b84a8623270, type: 3}
    - {fileID: 21300000, guid: 2187d2ab7c981f64898975d4f37d143e, type: 3}
    - {fileID: 21300000, guid: 0480c617ad3ab424ea7e376ef747a53a, type: 3}
    - {fileID: 21300000, guid: eff30aa6b55409f43bf5058a642c160d, type: 3}
    - {fileID: 21300000, guid: ec66af5653b471a4ab52039786f62ece, type: 3}
    - {fileID: 21300000, guid: 32277da363480e944899c7816aefd400, type: 3}
    - {fileID: 21300000, guid: bd8ab34c456e31d44ad2797830169180, type: 3}
    - {fileID: 21300000, guid: ae26c16c9a1d54d4ca1e13a5628ea795, type: 3}
    - {fileID: 21300000, guid: 99b32656d810a524586cf0e90b923276, type: 3}
    - {fileID: 21300000, guid: eaae271389a3e5543be8d8a419462099, type: 3}
    - {fileID: 21300000, guid: 50c959c833e049741823f9f7bac22474, type: 3}
    - {fileID: 21300000, guid: 540a99ec054f2a0499130cd405c7601b, type: 3}
    - {fileID: 21300000, guid: f8a61469a68c5b54d86e47e8d46289c3, type: 3}
    - {fileID: 21300000, guid: f19668117285a5640b88c26d12803724, type: 3}
    - {fileID: 21300000, guid: 6f41892616302ee4ea1daf491b2e0075, type: 3}
    - {fileID: 21300000, guid: 16cd511eb07300f43adba19795c7814a, type: 3}
    - {fileID: 21300000, guid: 799bc8d5b13d636499e2f9f26e9610fa, type: 3}
    - {fileID: 21300000, guid: baf45a1e098108d4eb503e24c42fb5d7, type: 3}
    - {fileID: 21300000, guid: 5038750e046899844b155e1b27073c54, type: 3}
    - {fileID: 21300000, guid: 3a06e0342179ab241bcc63f1c0ee64e0, type: 3}
    - {fileID: 21300000, guid: dce639b23a923a14e986102e16791730, type: 3}
    - {fileID: 21300000, guid: 360c73010659c434d99ce09b1cc44943, type: 3}
    - {fileID: 21300000, guid: 508e775a7714e9d41802b3fbbaa78dbb, type: 3}
    - {fileID: 21300000, guid: b7e1619e6ae3dea48b455e72e69145a8, type: 3}
    - {fileID: 21300000, guid: e2a49ea8904a20f4d8d5345d5c2bfdb1, type: 3}
    - {fileID: 21300000, guid: e120e5aeff88700419e53575067f818e, type: 3}
    - {fileID: 21300000, guid: 48a3c1538cdc78e44bca338c58d48e0e, type: 3}
    - {fileID: 21300000, guid: 84796a2c93fc1d7458288723ed5082a2, type: 3}
    - {fileID: 21300000, guid: e9721131da818f646bce8ffe70e0a738, type: 3}
    - {fileID: 21300000, guid: fb5e64adcc492944bb1129d68cd9c39a, type: 3}
    - {fileID: 21300000, guid: 9a338e4c745f75a43a728a2bc55fdcf8, type: 3}
    - {fileID: 21300000, guid: de7e96a572227184d80dd1a7b38aebb0, type: 3}
    - {fileID: 21300000, guid: c6ce4c590604c1746851ac9be4c36cb5, type: 3}
    - {fileID: 21300000, guid: 00066b23ac380694ba416730aaf78c18, type: 3}
    - {fileID: 21300000, guid: cb533132099aadc428320cc577709a36, type: 3}
    - {fileID: 21300000, guid: fd35f9d67fe29694d9a3d412c295ba84, type: 3}
    - {fileID: 21300000, guid: a0d119e205f163f4cac8fbe7f415885b, type: 3}
    - {fileID: 21300000, guid: c620a087ae50eea409dc06beed6f46f2, type: 3}
    - {fileID: 21300000, guid: ad06531214260e24ea3cb67db4b0c3fb, type: 3}
    - {fileID: 21300000, guid: d340359026866ad44b1d66826cc0da2b, type: 3}
    - {fileID: 21300000, guid: 8e41cab105227474eac03a55b58d8986, type: 3}
    - {fileID: 21300000, guid: ae7ce4e2358f13a45ae0e308e0c6202e, type: 3}
    - {fileID: 21300000, guid: a5da33a767db6624cbb3f5162bb3e7f7, type: 3}
    - {fileID: 21300000, guid: 096249f71291ae34d8f63cd232784953, type: 3}
    - {fileID: 21300000, guid: 60e8b0905009873409505cdc3670c2db, type: 3}
    - {fileID: 21300000, guid: 3981332b465d93e4d90a6a18a9d09821, type: 3}
    - {fileID: 21300000, guid: eda30e22e8b2d684787f5f839f3a3293, type: 3}
    - {fileID: 21300000, guid: cda1d8ebd2a94a840aebcb06fe9b500a, type: 3}
    - {fileID: 21300000, guid: aa7e625b232ebef4ea388d6c724c3486, type: 3}
    - {fileID: 21300000, guid: aab91dc5b1c6b9146ad7db7cdab197a1, type: 3}
    - {fileID: 21300000, guid: e19b8e414dca0b84e9359032ce04cc03, type: 3}
    - {fileID: 21300000, guid: 9e6dda4430dba4c42881bb0e4f6119a5, type: 3}
    - {fileID: 21300000, guid: 578a92ee27c41c14c8a566b1246f5f7a, type: 3}
    - {fileID: 21300000, guid: f8f74a2a83fb9a04a8718fac9a2191a6, type: 3}
    - {fileID: 21300000, guid: d3f25de6c0015f34cb0c296ed1e411bd, type: 3}
    - {fileID: 21300000, guid: 10e34177a2b09f945a46a480218e7bf4, type: 3}
    - {fileID: 21300000, guid: 24e2f9e810d86f742bc86a6cb262ab67, type: 3}
    - {fileID: 21300000, guid: 54bb04ae5713cab4f8cff8e1b4eb0806, type: 3}
    - {fileID: 21300000, guid: a8fd4635c79f3ea4b856edfae2957a3f, type: 3}
    - {fileID: 21300000, guid: 6c269e42a07013f4a8e1399836954876, type: 3}
    - {fileID: 21300000, guid: 2ab6231f4038f8c4487802f125811712, type: 3}
    - {fileID: 21300000, guid: 3505f71294951d4468218a78b11286e8, type: 3}
    - {fileID: 21300000, guid: 04117b2509ae0974f86c38ee3cc9420a, type: 3}
    - {fileID: 21300000, guid: 4da2bc62169929442909e1b8ff49e8de, type: 3}
    - {fileID: 21300000, guid: 749802eb6d971594ab4bcdbe6532dd2f, type: 3}
    - {fileID: 21300000, guid: b04bf362f183aee4d9b6274e692af439, type: 3}
    - {fileID: 21300000, guid: 8c2d61df71078054fbffd4c4f7e92c29, type: 3}
    - {fileID: 21300000, guid: ab5a4177e8c8aa24daee3022daab5d3a, type: 3}
    - {fileID: 21300000, guid: a520c3ae715e01d4fb44b0cf7a8e282b, type: 3}
    - {fileID: 21300000, guid: 836243c4e5a8a454a8be92ec3c322e04, type: 3}
    - {fileID: 21300000, guid: f482127ac00f1fd4da3f3f85a131c8ce, type: 3}
    - {fileID: 21300000, guid: fc9eb22d802be504f8420d15ebfd58c3, type: 3}
    - {fileID: 21300000, guid: 30f1f1db3697634488b1788b65a113cf, type: 3}
    - {fileID: 21300000, guid: 4dadff67f6e5b474c85186ca5259a421, type: 3}
    - {fileID: 21300000, guid: 1e43bfac84f78e2418ef1a6e17ad1aff, type: 3}
    - {fileID: 21300000, guid: ab894d87273fa0d458ae145e6bda64b0, type: 3}
    - {fileID: 21300000, guid: 2874aadffbb019545aa1dd838d5a14f1, type: 3}
    - {fileID: 21300000, guid: 3e15fe418c8b5ca4296645c9917d4780, type: 3}
    - {fileID: 21300000, guid: 4f9454af20e02bb4a903b26d18f3fde7, type: 3}
    - {fileID: 21300000, guid: c9a9463c6fe22484288c4ef5949f6acc, type: 3}
    - {fileID: 21300000, guid: f7ff3ef156fa13142a655beb72aab7b0, type: 3}
    - {fileID: 21300000, guid: b1e47f059b0fb034480bf0997b751a23, type: 3}
    - {fileID: 21300000, guid: f22fa6f7310204e4a8a05295940c3b3e, type: 3}
    - {fileID: 21300000, guid: 8c44846ccb240fa458772aebb19e67b3, type: 3}
    - {fileID: 21300000, guid: aeac6286c4b20a74b97dbb0f360d15de, type: 3}
    - {fileID: 21300000, guid: 5d067fbb0ccae8e4eaf27f7440e361ff, type: 3}
    - {fileID: 21300000, guid: 1fa9a56a9a5cc5a49a6d2c23dba1dbf4, type: 3}
    - {fileID: 21300000, guid: 6236e0061449d564b9231f5445eb9e8f, type: 3}
    - {fileID: 21300000, guid: b7629fe1156cb9940b936158baec9145, type: 3}
    - {fileID: 21300000, guid: 2166ded67b257874e9ada7a940a7f43f, type: 3}
    - {fileID: 21300000, guid: 493960d140b3a7540ab0d9e1ff5453f0, type: 3}
    - {fileID: 21300000, guid: 97bff9d616e896b428ac77a6b1c1c149, type: 3}
    - {fileID: 21300000, guid: c8a3e57c93b24224a9b9ed3e35f6e4c4, type: 3}
    - {fileID: 21300000, guid: 12ea05322c3f1e945ad85cddb2bf554a, type: 3}
    - {fileID: 21300000, guid: a97ce4bd2d9d7ba4eb35d91414e8ca85, type: 3}
    - {fileID: 21300000, guid: 4cf68113f726b7c4e8b6c094f5d645b7, type: 3}
    - {fileID: 21300000, guid: 7b984868d832baa4b80c9d9930526b4b, type: 3}
    - {fileID: 21300000, guid: 0ce8875d56d63234196c1b3db969f15c, type: 3}
    - {fileID: 21300000, guid: e47cd49dbf267d0458e1de8bf31f737c, type: 3}
    - {fileID: 21300000, guid: eba55d22a63d846419de0803ebd1f269, type: 3}
    - {fileID: 21300000, guid: 536abf9d62672d24095b86e03718a9a4, type: 3}
    - {fileID: 21300000, guid: 910f7711590546a4caf9713b821c21ff, type: 3}
    - {fileID: 21300000, guid: c61f5f983059fd147adc4781fc39ee7c, type: 3}
    - {fileID: 21300000, guid: 2bbb7b16737500b48bd84198123ac2ab, type: 3}
    - {fileID: 21300000, guid: 39fa2130647d2fb438bbecba58af2c4b, type: 3}
    - {fileID: 21300000, guid: f7fdcc0613ddd984286048d7179c6a5b, type: 3}
    - {fileID: 21300000, guid: d5b64c02151ed5d4cae47b47f6a4c889, type: 3}
    - {fileID: 21300000, guid: 914dc42b73df978468223b1b668da346, type: 3}
    - {fileID: 21300000, guid: b63ec0cc92bb1384183af55176275e08, type: 3}
    - {fileID: 21300000, guid: 1ee9a33ee517e294ca289c562802e2bd, type: 3}
    - {fileID: 21300000, guid: becccbb79e8b9a847954c76aa2f0c662, type: 3}
    - {fileID: 21300000, guid: 0b4d070762bdc6f4395c05fa8a355484, type: 3}
    - {fileID: 21300000, guid: b1d4f02c41550c64ba7dbbad220073e6, type: 3}
    - {fileID: 21300000, guid: 6f91faee871422d44863c230cadc0ff2, type: 3}
    - {fileID: 21300000, guid: 937f80fffbae0a44da0486fcb6058292, type: 3}
    - {fileID: 21300000, guid: a6b39b1f3521d12418d693ce90a5a0a1, type: 3}
    - {fileID: 21300000, guid: 67be745422e4eab4eae79322ff1ac13f, type: 3}
    - {fileID: 21300000, guid: b1bbd249683295f4e936dd3c7a5c5e89, type: 3}
    - {fileID: 21300000, guid: 9cdb38ac5bc02b84b88f4e565c79d422, type: 3}
    - {fileID: 21300000, guid: ea32ffe1fcaf9894e8fcb8e0c9cd5581, type: 3}
    - {fileID: 21300000, guid: 495b69508951fc942927119bd560ccfc, type: 3}
    - {fileID: 21300000, guid: cb7563d1da3997c4a904c75eae4ac460, type: 3}
    - {fileID: 21300000, guid: 6adeeba946b78144bb700d20ab050d00, type: 3}
    - {fileID: 21300000, guid: c6a2fce1771efcd4ab85361876af32b7, type: 3}
    - {fileID: 21300000, guid: 162aed1641235144194767f3d38bd5f2, type: 3}
    - {fileID: 21300000, guid: e374dd877c3615b418ab37e3d66bbac5, type: 3}
    - {fileID: 21300000, guid: bf34f4f13e3e7174b8f8370d30463537, type: 3}
    - {fileID: 21300000, guid: 271989adb5a51944b891b3f74cabe44e, type: 3}
    - {fileID: 21300000, guid: ce2453eb7bf70614caf3a13ea1f9636b, type: 3}
    - {fileID: 21300000, guid: c6e1a8af500069b4fbc0c1b6a4937de6, type: 3}
    - {fileID: 21300000, guid: 4565ba1babb1bba4182231689e0c6ab4, type: 3}
    - {fileID: 21300000, guid: e359c8d4ea002994a9435bce2aa87dc4, type: 3}
    - {fileID: 21300000, guid: 3124810a89441224689bb758e63a6f27, type: 3}
    - {fileID: 21300000, guid: a5223702ad600b843b7a271f4ca70f7f, type: 3}
    - {fileID: 21300000, guid: d04c72f0630fa1141949ed2d102486b4, type: 3}
    - {fileID: 21300000, guid: 737e30c53ba08fc4eac04308424784fb, type: 3}
    - {fileID: 21300000, guid: a95aa0e3bd3e8e54aaf89a301572c708, type: 3}
    - {fileID: 21300000, guid: 1c598bc07e5848347bad0be8f7cd466c, type: 3}
    - {fileID: 21300000, guid: 3c3e542576da3a8409ca5f9fbcb73b75, type: 3}
    - {fileID: 21300000, guid: 094cf54f6b71d9645a266246b0603025, type: 3}
    - {fileID: 21300000, guid: 2698487f09509f54db29eff40bc8210e, type: 3}
    - {fileID: 21300000, guid: b9d13f46e60d92e4fa5a18567eb8aeb4, type: 3}
    - {fileID: 21300000, guid: eac2fe8d8230e964f84e8932c337a2b8, type: 3}
  m_AnimationClipSettings:
    serializedVersion: 2
    m_AdditiveReferencePoseClip: {fileID: 0}
    m_AdditiveReferencePoseTime: 0
    m_StartTime: 0
    m_StopTime: 2.5666666
    m_OrientationOffsetY: 0
    m_Level: 0
    m_CycleOffset: 0
    m_HasAdditiveReferencePose: 0
    m_LoopTime: 1
    m_LoopBlend: 0
    m_LoopBlendOrientation: 0
    m_LoopBlendPositionY: 0
    m_LoopBlendPositionXZ: 0
    m_KeepOriginalOrientation: 0
    m_KeepOriginalPositionY: 1
    m_KeepOriginalPositionXZ: 0
    m_HeightFromFeet: 0
    m_Mirror: 0
  m_EditorCurves: []
  m_EulerEditorCurves: []
  m_HasGenericRootTransform: 0
  m_HasMotionFloatCurves: 0
  m_Events: []
