%YAML 1.1
%TAG !u! tag:unity3d.com,2011:
--- !u!74 &7400000
AnimationClip:
  m_ObjectHideFlags: 0
  m_CorrespondingSourceObject: {fileID: 0}
  m_PrefabInstance: {fileID: 0}
  m_PrefabAsset: {fileID: 0}
  m_Name: Idle
  serializedVersion: 6
  m_Legacy: 0
  m_Compressed: 0
  m_UseHighQualityCurve: 1
  m_RotationCurves: []
  m_CompressedRotationCurves: []
  m_EulerCurves: []
  m_PositionCurves: []
  m_ScaleCurves: []
  m_FloatCurves: []
  m_PPtrCurves:
  - curve:
    - time: 0
      value: {fileID: 21300000, guid: 6f1f52b5342bcce4693eb455157d382d, type: 3}
    - time: 0.016666668
      value: {fileID: 21300000, guid: af08a19381826ee4aa7791b336f82799, type: 3}
    - time: 0.033333335
      value: {fileID: 21300000, guid: b3aa4a19f70db67478488c5d9c85622d, type: 3}
    - time: 0.05
      value: {fileID: 21300000, guid: de9f775c4c6b7224baa43b303125a12b, type: 3}
    - time: 0.06666667
      value: {fileID: 21300000, guid: e276094b251d8f54a93d682d619deed1, type: 3}
    - time: 0.083333336
      value: {fileID: 21300000, guid: 1c5024a4bf70df54bab9faee452d4ec8, type: 3}
    - time: 0.1
      value: {fileID: 21300000, guid: 6b01aba41726e594fa44bbd04f3bca8a, type: 3}
    - time: 0.11666667
      value: {fileID: 21300000, guid: d5ee6bcd4e5382b40a04e8a8d7e376c2, type: 3}
    - time: 0.13333334
      value: {fileID: 21300000, guid: e31e1389a74030d4691a12785dc22a13, type: 3}
    attribute: m_Sprite
    path: 
    classID: 114
    script: {fileID: 11500000, guid: fe87c0e1cc204ed48ad3b37840f39efc, type: 3}
  m_SampleRate: 60
  m_WrapMode: 0
  m_Bounds:
    m_Center: {x: 0, y: 0, z: 0}
    m_Extent: {x: 0, y: 0, z: 0}
  m_ClipBindingConstant:
    genericBindings:
    - serializedVersion: 2
      path: 0
      attribute: 2015549526
      script: {fileID: 11500000, guid: fe87c0e1cc204ed48ad3b37840f39efc, type: 3}
      typeID: 114
      customType: 0
      isPPtrCurve: 1
    pptrCurveMapping:
    - {fileID: 21300000, guid: 6f1f52b5342bcce4693eb455157d382d, type: 3}
    - {fileID: 21300000, guid: af08a19381826ee4aa7791b336f82799, type: 3}
    - {fileID: 21300000, guid: b3aa4a19f70db67478488c5d9c85622d, type: 3}
    - {fileID: 21300000, guid: de9f775c4c6b7224baa43b303125a12b, type: 3}
    - {fileID: 21300000, guid: e276094b251d8f54a93d682d619deed1, type: 3}
    - {fileID: 21300000, guid: 1c5024a4bf70df54bab9faee452d4ec8, type: 3}
    - {fileID: 21300000, guid: 6b01aba41726e594fa44bbd04f3bca8a, type: 3}
    - {fileID: 21300000, guid: d5ee6bcd4e5382b40a04e8a8d7e376c2, type: 3}
    - {fileID: 21300000, guid: e31e1389a74030d4691a12785dc22a13, type: 3}
  m_AnimationClipSettings:
    serializedVersion: 2
    m_AdditiveReferencePoseClip: {fileID: 0}
    m_AdditiveReferencePoseTime: 0
    m_StartTime: 0
    m_StopTime: 0.15
    m_OrientationOffsetY: 0
    m_Level: 0
    m_CycleOffset: 0
    m_HasAdditiveReferencePose: 0
    m_LoopTime: 1
    m_LoopBlend: 0
    m_LoopBlendOrientation: 0
    m_LoopBlendPositionY: 0
    m_LoopBlendPositionXZ: 0
    m_KeepOriginalOrientation: 0
    m_KeepOriginalPositionY: 1
    m_KeepOriginalPositionXZ: 0
    m_HeightFromFeet: 0
    m_Mirror: 0
  m_EditorCurves: []
  m_EulerEditorCurves: []
  m_HasGenericRootTransform: 0
  m_HasMotionFloatCurves: 0
  m_Events: []
