%YAML 1.1
%TAG !u! tag:unity3d.com,2011:
--- !u!74 &7400000
AnimationClip:
  m_ObjectHideFlags: 0
  m_CorrespondingSourceObject: {fileID: 0}
  m_PrefabInstance: {fileID: 0}
  m_PrefabAsset: {fileID: 0}
  m_Name: DogSadFace
  serializedVersion: 6
  m_Legacy: 0
  m_Compressed: 0
  m_UseHighQualityCurve: 1
  m_RotationCurves: []
  m_CompressedRotationCurves: []
  m_EulerCurves: []
  m_PositionCurves: []
  m_ScaleCurves: []
  m_FloatCurves: []
  m_PPtrCurves:
  - curve:
    - time: 0
      value: {fileID: 21300000, guid: b9ab483ee7ce9b44da3561ad308abb61, type: 3}
    - time: 0.016666668
      value: {fileID: 21300000, guid: 6aa941ecff3dc6e41bdfdb63813b4c7a, type: 3}
    - time: 0.033333335
      value: {fileID: 21300000, guid: 26d5828b66e0fa646863a2af08d0d977, type: 3}
    - time: 0.05
      value: {fileID: 21300000, guid: cfd58d9b855373946bf99486683696b6, type: 3}
    - time: 0.06666667
      value: {fileID: 21300000, guid: ca4d4826cfc479b46aceb74d40ff53f2, type: 3}
    - time: 0.083333336
      value: {fileID: 21300000, guid: 85451256ad21e014c95cb234737ddf6f, type: 3}
    - time: 0.1
      value: {fileID: 21300000, guid: 29a475baba60da24ea6144cd0d10cc1b, type: 3}
    - time: 0.11666667
      value: {fileID: 21300000, guid: 63f8c66fa5b8b6d418122679dfbe51ff, type: 3}
    - time: 0.13333334
      value: {fileID: 21300000, guid: d386cae00efd30847b92b8e5dff3b1a0, type: 3}
    - time: 0.15
      value: {fileID: 21300000, guid: 06b684408c2ecb3478645b1155e94ab6, type: 3}
    - time: 0.16666667
      value: {fileID: 21300000, guid: d0a02f1f1433e7641a04ef1a4e15e9f1, type: 3}
    - time: 0.18333334
      value: {fileID: 21300000, guid: 40158f53e09e00548a876acf9cead4a6, type: 3}
    - time: 0.2
      value: {fileID: 21300000, guid: 4ec60d7308371164abef322c9928c90f, type: 3}
    - time: 0.21666667
      value: {fileID: 21300000, guid: 6a6f8c4f83ba53143bd84fddbe4b04df, type: 3}
    - time: 0.23333333
      value: {fileID: 21300000, guid: 579bf1df7c2cd294893f585e94fc2cfd, type: 3}
    - time: 0.25
      value: {fileID: 21300000, guid: b1ec21e9a40f2d54daf579e9630e82bb, type: 3}
    - time: 0.26666668
      value: {fileID: 21300000, guid: b1758d7df58bfb94f8d076978fdd0414, type: 3}
    - time: 0.28333333
      value: {fileID: 21300000, guid: 30179235c305b214faad8aeac8050558, type: 3}
    - time: 0.3
      value: {fileID: 21300000, guid: 21c8fcb40a7a5ea43be1fe83c6f3c23a, type: 3}
    - time: 0.31666666
      value: {fileID: 21300000, guid: 936229bcefe1177458141c4f984e94b8, type: 3}
    - time: 0.33333334
      value: {fileID: 21300000, guid: 81fe080a2fc1db745a484877989869b5, type: 3}
    - time: 0.35
      value: {fileID: 21300000, guid: 7356d55d47eb6b2448c5a925cebb6d30, type: 3}
    - time: 0.36666667
      value: {fileID: 21300000, guid: 0a5aca00e1119694e8393de99aa0420d, type: 3}
    - time: 0.38333333
      value: {fileID: 21300000, guid: a481ff49975961d4da0386decaaf651b, type: 3}
    - time: 0.4
      value: {fileID: 21300000, guid: c3602a6f8141312419b4d2a4e570974e, type: 3}
    - time: 0.41666666
      value: {fileID: 21300000, guid: 85d39049dee69094a96d6bf2d26e39a9, type: 3}
    - time: 0.43333334
      value: {fileID: 21300000, guid: 846a34c7d1895774f927da3285cc4d4e, type: 3}
    - time: 0.45
      value: {fileID: 21300000, guid: a1505952aab6c7945ac93a16bf5fc52c, type: 3}
    - time: 0.46666667
      value: {fileID: 21300000, guid: 0d66d158b03239f45a8467f164118566, type: 3}
    - time: 0.48333332
      value: {fileID: 21300000, guid: b9c120631358ecb44bb795e11ec5f92c, type: 3}
    - time: 0.5
      value: {fileID: 21300000, guid: b6d6b6c0600cc9742b432010e383dd59, type: 3}
    - time: 0.51666665
      value: {fileID: 21300000, guid: f85a2bc89deee234f990087d62386cee, type: 3}
    - time: 0.53333336
      value: {fileID: 21300000, guid: 495a9229a4741aa4d830f16e12006516, type: 3}
    - time: 0.55
      value: {fileID: 21300000, guid: b5fb00d7955c6954d9e10d81acd1f791, type: 3}
    - time: 0.56666666
      value: {fileID: 21300000, guid: c8c1aec211c321342b700808770f35c6, type: 3}
    - time: 0.5833333
      value: {fileID: 21300000, guid: bdd8f269800778d49867c5a1b3ab4a45, type: 3}
    - time: 0.6
      value: {fileID: 21300000, guid: 68c97a631736d3c4787982080ad30453, type: 3}
    - time: 0.6166667
      value: {fileID: 21300000, guid: 25089cbf8657f4a4a8e67da41690571b, type: 3}
    - time: 0.6333333
      value: {fileID: 21300000, guid: 1d13f6b199f2d3e41986d428cdb5c842, type: 3}
    - time: 0.65
      value: {fileID: 21300000, guid: 6b918fe126ec80f44826fd51a337c40b, type: 3}
    - time: 0.6666667
      value: {fileID: 21300000, guid: 8537b96627badd34190a95af1a9fb75a, type: 3}
    - time: 0.68333334
      value: {fileID: 21300000, guid: 64f15dea335a0ab47a702b89d2aa34d3, type: 3}
    - time: 0.7
      value: {fileID: 21300000, guid: c60ae8dbb1e3650468339127a90ffc32, type: 3}
    - time: 0.71666664
      value: {fileID: 21300000, guid: 8add164aa775cdd48820400573dc7281, type: 3}
    - time: 0.73333335
      value: {fileID: 21300000, guid: 931a2115b3ef5274db36a413fff9deb8, type: 3}
    - time: 0.75
      value: {fileID: 21300000, guid: fe87732df153f374d99d6e2dad81b667, type: 3}
    - time: 0.76666665
      value: {fileID: 21300000, guid: d6e45131de47c4645afab3453529df50, type: 3}
    - time: 0.78333336
      value: {fileID: 21300000, guid: beef6b3bd1f3f7245894e4033e93be8a, type: 3}
    - time: 0.8
      value: {fileID: 21300000, guid: 691a0cd6a6e0e004e9145018f47368e5, type: 3}
    - time: 0.81666666
      value: {fileID: 21300000, guid: 39c4f8993940d634bbae8791805f6239, type: 3}
    - time: 0.8333333
      value: {fileID: 21300000, guid: af3ba5c17a1f6e941b1424e8bacf565c, type: 3}
    - time: 0.85
      value: {fileID: 21300000, guid: afaa2989a6dbaf340a05167a677f8d29, type: 3}
    - time: 0.8666667
      value: {fileID: 21300000, guid: e1cef8969fda9b24987305b82073299f, type: 3}
    - time: 0.8833333
      value: {fileID: 21300000, guid: 394d61304edab024b930d79875cf4e9d, type: 3}
    - time: 0.9
      value: {fileID: 21300000, guid: a99b634074c2ac94d922e969ac58ad84, type: 3}
    - time: 0.9166667
      value: {fileID: 21300000, guid: 334899b0dcd954540b10fa4e52db1235, type: 3}
    - time: 0.93333334
      value: {fileID: 21300000, guid: 446c362c6b0fca4499b658318fad5992, type: 3}
    - time: 0.95
      value: {fileID: 21300000, guid: dc2ae2fa729c36045a9fd4e16c4c9827, type: 3}
    - time: 0.96666664
      value: {fileID: 21300000, guid: 82424a8f5dc33164fb618b778375a5eb, type: 3}
    - time: 0.98333335
      value: {fileID: 21300000, guid: c78f880b8f1ef1c4eb88253c2e5b5654, type: 3}
    - time: 1
      value: {fileID: 21300000, guid: 1020aa9c01d43c64e8fee047a9fa7715, type: 3}
    - time: 1.0166667
      value: {fileID: 21300000, guid: ecbd84a6945f3434eba4cbcef320fa9f, type: 3}
    - time: 1.0333333
      value: {fileID: 21300000, guid: 7a7aa71440ae69c4695b5a3f7c2c8824, type: 3}
    - time: 1.05
      value: {fileID: 21300000, guid: 8566451fd4488914c95fe5610856e61b, type: 3}
    - time: 1.0666667
      value: {fileID: 21300000, guid: ab27fcc2e3e6cbd488814991433e925d, type: 3}
    - time: 1.0833334
      value: {fileID: 21300000, guid: ca0097306a64212459387e1800a9d654, type: 3}
    - time: 1.1
      value: {fileID: 21300000, guid: 7fbf3957ee6fd5f49b7325bc39398ee0, type: 3}
    - time: 1.1166667
      value: {fileID: 21300000, guid: 7ecbbece6ffcd2245b5885ae2b887f18, type: 3}
    - time: 1.1333333
      value: {fileID: 21300000, guid: 3ddfc29e17d9cef48a68ef294f8b11e2, type: 3}
    - time: 1.15
      value: {fileID: 21300000, guid: 3583372ee62393843ab4aadfa720b10a, type: 3}
    - time: 1.1666666
      value: {fileID: 21300000, guid: 5e97d516f63739f449e3f12492baffa1, type: 3}
    - time: 1.1833333
      value: {fileID: 21300000, guid: a3fbeddbbec2a2b42998baef070162f7, type: 3}
    - time: 1.2
      value: {fileID: 21300000, guid: a69944faa6e702446a4bb6eca2c43964, type: 3}
    - time: 1.2166667
      value: {fileID: 21300000, guid: a868e23e21d3ad64cae09b2648a735ba, type: 3}
    - time: 1.2333333
      value: {fileID: 21300000, guid: 38ad38a0438658742a62b946b30ef03d, type: 3}
    attribute: m_Sprite
    path: 
    classID: 114
    script: {fileID: 11500000, guid: fe87c0e1cc204ed48ad3b37840f39efc, type: 3}
  m_SampleRate: 60
  m_WrapMode: 0
  m_Bounds:
    m_Center: {x: 0, y: 0, z: 0}
    m_Extent: {x: 0, y: 0, z: 0}
  m_ClipBindingConstant:
    genericBindings:
    - serializedVersion: 2
      path: 0
      attribute: 2015549526
      script: {fileID: 11500000, guid: fe87c0e1cc204ed48ad3b37840f39efc, type: 3}
      typeID: 114
      customType: 0
      isPPtrCurve: 1
    pptrCurveMapping:
    - {fileID: 21300000, guid: b9ab483ee7ce9b44da3561ad308abb61, type: 3}
    - {fileID: 21300000, guid: 6aa941ecff3dc6e41bdfdb63813b4c7a, type: 3}
    - {fileID: 21300000, guid: 26d5828b66e0fa646863a2af08d0d977, type: 3}
    - {fileID: 21300000, guid: cfd58d9b855373946bf99486683696b6, type: 3}
    - {fileID: 21300000, guid: ca4d4826cfc479b46aceb74d40ff53f2, type: 3}
    - {fileID: 21300000, guid: 85451256ad21e014c95cb234737ddf6f, type: 3}
    - {fileID: 21300000, guid: 29a475baba60da24ea6144cd0d10cc1b, type: 3}
    - {fileID: 21300000, guid: 63f8c66fa5b8b6d418122679dfbe51ff, type: 3}
    - {fileID: 21300000, guid: d386cae00efd30847b92b8e5dff3b1a0, type: 3}
    - {fileID: 21300000, guid: 06b684408c2ecb3478645b1155e94ab6, type: 3}
    - {fileID: 21300000, guid: d0a02f1f1433e7641a04ef1a4e15e9f1, type: 3}
    - {fileID: 21300000, guid: 40158f53e09e00548a876acf9cead4a6, type: 3}
    - {fileID: 21300000, guid: 4ec60d7308371164abef322c9928c90f, type: 3}
    - {fileID: 21300000, guid: 6a6f8c4f83ba53143bd84fddbe4b04df, type: 3}
    - {fileID: 21300000, guid: 579bf1df7c2cd294893f585e94fc2cfd, type: 3}
    - {fileID: 21300000, guid: b1ec21e9a40f2d54daf579e9630e82bb, type: 3}
    - {fileID: 21300000, guid: b1758d7df58bfb94f8d076978fdd0414, type: 3}
    - {fileID: 21300000, guid: 30179235c305b214faad8aeac8050558, type: 3}
    - {fileID: 21300000, guid: 21c8fcb40a7a5ea43be1fe83c6f3c23a, type: 3}
    - {fileID: 21300000, guid: 936229bcefe1177458141c4f984e94b8, type: 3}
    - {fileID: 21300000, guid: 81fe080a2fc1db745a484877989869b5, type: 3}
    - {fileID: 21300000, guid: 7356d55d47eb6b2448c5a925cebb6d30, type: 3}
    - {fileID: 21300000, guid: 0a5aca00e1119694e8393de99aa0420d, type: 3}
    - {fileID: 21300000, guid: a481ff49975961d4da0386decaaf651b, type: 3}
    - {fileID: 21300000, guid: c3602a6f8141312419b4d2a4e570974e, type: 3}
    - {fileID: 21300000, guid: 85d39049dee69094a96d6bf2d26e39a9, type: 3}
    - {fileID: 21300000, guid: 846a34c7d1895774f927da3285cc4d4e, type: 3}
    - {fileID: 21300000, guid: a1505952aab6c7945ac93a16bf5fc52c, type: 3}
    - {fileID: 21300000, guid: 0d66d158b03239f45a8467f164118566, type: 3}
    - {fileID: 21300000, guid: b9c120631358ecb44bb795e11ec5f92c, type: 3}
    - {fileID: 21300000, guid: b6d6b6c0600cc9742b432010e383dd59, type: 3}
    - {fileID: 21300000, guid: f85a2bc89deee234f990087d62386cee, type: 3}
    - {fileID: 21300000, guid: 495a9229a4741aa4d830f16e12006516, type: 3}
    - {fileID: 21300000, guid: b5fb00d7955c6954d9e10d81acd1f791, type: 3}
    - {fileID: 21300000, guid: c8c1aec211c321342b700808770f35c6, type: 3}
    - {fileID: 21300000, guid: bdd8f269800778d49867c5a1b3ab4a45, type: 3}
    - {fileID: 21300000, guid: 68c97a631736d3c4787982080ad30453, type: 3}
    - {fileID: 21300000, guid: 25089cbf8657f4a4a8e67da41690571b, type: 3}
    - {fileID: 21300000, guid: 1d13f6b199f2d3e41986d428cdb5c842, type: 3}
    - {fileID: 21300000, guid: 6b918fe126ec80f44826fd51a337c40b, type: 3}
    - {fileID: 21300000, guid: 8537b96627badd34190a95af1a9fb75a, type: 3}
    - {fileID: 21300000, guid: 64f15dea335a0ab47a702b89d2aa34d3, type: 3}
    - {fileID: 21300000, guid: c60ae8dbb1e3650468339127a90ffc32, type: 3}
    - {fileID: 21300000, guid: 8add164aa775cdd48820400573dc7281, type: 3}
    - {fileID: 21300000, guid: 931a2115b3ef5274db36a413fff9deb8, type: 3}
    - {fileID: 21300000, guid: fe87732df153f374d99d6e2dad81b667, type: 3}
    - {fileID: 21300000, guid: d6e45131de47c4645afab3453529df50, type: 3}
    - {fileID: 21300000, guid: beef6b3bd1f3f7245894e4033e93be8a, type: 3}
    - {fileID: 21300000, guid: 691a0cd6a6e0e004e9145018f47368e5, type: 3}
    - {fileID: 21300000, guid: 39c4f8993940d634bbae8791805f6239, type: 3}
    - {fileID: 21300000, guid: af3ba5c17a1f6e941b1424e8bacf565c, type: 3}
    - {fileID: 21300000, guid: afaa2989a6dbaf340a05167a677f8d29, type: 3}
    - {fileID: 21300000, guid: e1cef8969fda9b24987305b82073299f, type: 3}
    - {fileID: 21300000, guid: 394d61304edab024b930d79875cf4e9d, type: 3}
    - {fileID: 21300000, guid: a99b634074c2ac94d922e969ac58ad84, type: 3}
    - {fileID: 21300000, guid: 334899b0dcd954540b10fa4e52db1235, type: 3}
    - {fileID: 21300000, guid: 446c362c6b0fca4499b658318fad5992, type: 3}
    - {fileID: 21300000, guid: dc2ae2fa729c36045a9fd4e16c4c9827, type: 3}
    - {fileID: 21300000, guid: 82424a8f5dc33164fb618b778375a5eb, type: 3}
    - {fileID: 21300000, guid: c78f880b8f1ef1c4eb88253c2e5b5654, type: 3}
    - {fileID: 21300000, guid: 1020aa9c01d43c64e8fee047a9fa7715, type: 3}
    - {fileID: 21300000, guid: ecbd84a6945f3434eba4cbcef320fa9f, type: 3}
    - {fileID: 21300000, guid: 7a7aa71440ae69c4695b5a3f7c2c8824, type: 3}
    - {fileID: 21300000, guid: 8566451fd4488914c95fe5610856e61b, type: 3}
    - {fileID: 21300000, guid: ab27fcc2e3e6cbd488814991433e925d, type: 3}
    - {fileID: 21300000, guid: ca0097306a64212459387e1800a9d654, type: 3}
    - {fileID: 21300000, guid: 7fbf3957ee6fd5f49b7325bc39398ee0, type: 3}
    - {fileID: 21300000, guid: 7ecbbece6ffcd2245b5885ae2b887f18, type: 3}
    - {fileID: 21300000, guid: 3ddfc29e17d9cef48a68ef294f8b11e2, type: 3}
    - {fileID: 21300000, guid: 3583372ee62393843ab4aadfa720b10a, type: 3}
    - {fileID: 21300000, guid: 5e97d516f63739f449e3f12492baffa1, type: 3}
    - {fileID: 21300000, guid: a3fbeddbbec2a2b42998baef070162f7, type: 3}
    - {fileID: 21300000, guid: a69944faa6e702446a4bb6eca2c43964, type: 3}
    - {fileID: 21300000, guid: a868e23e21d3ad64cae09b2648a735ba, type: 3}
    - {fileID: 21300000, guid: 38ad38a0438658742a62b946b30ef03d, type: 3}
  m_AnimationClipSettings:
    serializedVersion: 2
    m_AdditiveReferencePoseClip: {fileID: 0}
    m_AdditiveReferencePoseTime: 0
    m_StartTime: 0
    m_StopTime: 1.25
    m_OrientationOffsetY: 0
    m_Level: 0
    m_CycleOffset: 0
    m_HasAdditiveReferencePose: 0
    m_LoopTime: 1
    m_LoopBlend: 0
    m_LoopBlendOrientation: 0
    m_LoopBlendPositionY: 0
    m_LoopBlendPositionXZ: 0
    m_KeepOriginalOrientation: 0
    m_KeepOriginalPositionY: 1
    m_KeepOriginalPositionXZ: 0
    m_HeightFromFeet: 0
    m_Mirror: 0
  m_EditorCurves: []
  m_EulerEditorCurves: []
  m_HasGenericRootTransform: 0
  m_HasMotionFloatCurves: 0
  m_Events: []
